[gd_scene load_steps=2 format=2]

[ext_resource path="res://Scenes/Levels/Base/Level.tscn" type="PackedScene" id=1]


[node name="Level" instance=ExtResource( 1 )]

stage_number = 1

[node name="FoodSpawn1" parent="FoodSpawnsContainer" index="0"]

position = Vector2( 496, 208 )

[node name="FoodSpawn2" type="Position2D" parent="FoodSpawnsContainer" index="1"]

position = Vector2( 560, 368 )

[node name="FoodSpawn3" type="Position2D" parent="FoodSpawnsContainer" index="2"]

position = Vector2( 144, 144 )

[node name="FoodSpawn4" type="Position2D" parent="FoodSpawnsContainer" index="3"]

position = Vector2( 48, 144 )

[node name="FoodSpawn5" type="Position2D" parent="FoodSpawnsContainer" index="4"]

position = Vector2( 48, 304 )

[node name="FoodSpawn6" type="Position2D" parent="FoodSpawnsContainer" index="5"]

position = Vector2( 144, 304 )

[node name="FoodSpawn7" type="Position2D" parent="FoodSpawnsContainer" index="6"]

position = Vector2( 240, 112 )

[node name="FoodSpawn8" type="Position2D" parent="FoodSpawnsContainer" index="7"]

position = Vector2( 304, 176 )

[node name="FoodSpawn9" type="Position2D" parent="FoodSpawnsContainer" index="8"]

position = Vector2( 80, 176 )

[node name="FoodSpawn10" type="Position2D" parent="FoodSpawnsContainer" index="9"]

position = Vector2( 336, 400 )

[node name="FoodSpawn11" type="Position2D" parent="FoodSpawnsContainer" index="10"]

position = Vector2( 80, 144 )

[node name="FoodSpawn12" type="Position2D" parent="FoodSpawnsContainer" index="11"]

position = Vector2( 592, 144 )

[node name="FoodSpawn13" type="Position2D" parent="FoodSpawnsContainer" index="12"]

position = Vector2( 592, 432 )

[node name="FoodSpawn14" type="Position2D" parent="FoodSpawnsContainer" index="13"]

position = Vector2( 48, 368 )

[node name="FoodSpawn15" type="Position2D" parent="FoodSpawnsContainer" index="14"]

position = Vector2( 208, 304 )

[node name="FoodSpawn16" type="Position2D" parent="FoodSpawnsContainer" index="15"]

position = Vector2( 400, 208 )

[node name="FoodSpawn17" type="Position2D" parent="FoodSpawnsContainer" index="16"]

position = Vector2( 432, 112 )

[node name="FoodSpawn18" type="Position2D" parent="FoodSpawnsContainer" index="17"]

position = Vector2( 304, 432 )

[node name="FoodSpawn19" type="Position2D" parent="FoodSpawnsContainer" index="18"]

position = Vector2( 144, 432 )

[node name="FoodSpawn20" type="Position2D" parent="FoodSpawnsContainer" index="19"]

position = Vector2( 496, 400 )

[node name="FoodSpawn21" type="Position2D" parent="FoodSpawnsContainer" index="20"]

position = Vector2( 48, 240 )

[node name="FoodSpawn22" type="Position2D" parent="FoodSpawnsContainer" index="21"]

position = Vector2( 336, 272 )

[node name="FoodSpawn23" type="Position2D" parent="FoodSpawnsContainer" index="22"]

position = Vector2( 432, 336 )

[node name="FoodSpawn24" type="Position2D" parent="FoodSpawnsContainer" index="23"]

position = Vector2( 112, 112 )

[node name="FoodSpawn25" type="Position2D" parent="FoodSpawnsContainer" index="24"]

position = Vector2( 592, 240 )

[node name="SnakeSpawn" parent="." index="3"]

_sections_unfolded = [ "Transform" ]


