[gd_scene load_steps=2 format=2]

[ext_resource path="res://Scenes/Levels/Level8Easy.tscn" type="PackedScene" id=1]

[node name="Level" index="0" instance=ExtResource( 1 )]

time_for_level = 100
snake_move_delay = 0.125


