[gd_scene load_steps=3 format=2]

[ext_resource path="res://Scenes/Wall/Wall.tscn" type="PackedScene" id=1]
[ext_resource path="res://Scenes/Wall/WallGate.gd" type="Script" id=2]

[node name="Wall" instance=ExtResource( 1 )]

script = ExtResource( 2 )


