[gd_scene load_steps=2 format=2]

[ext_resource path="res://Images/main.png" type="Texture" id=1]

[node name="SplashScreen" type="TextureRect" index="0"]

editor/display_folded = true
visible = false
anchor_left = 0.0
anchor_top = 0.0
anchor_right = 1.0
anchor_bottom = 1.0
rect_pivot_offset = Vector2( 0, 0 )
rect_clip_content = false
mouse_filter = 1
mouse_default_cursor_shape = 0
size_flags_horizontal = 1
size_flags_vertical = 1
texture = ExtResource( 1 )
expand = true
stretch_mode = 6

[node name="MarginContainer" type="MarginContainer" parent="." index="0"]

anchor_left = 0.0
anchor_top = 1.0
anchor_right = 1.0
anchor_bottom = 1.0
margin_top = -74.0
rect_pivot_offset = Vector2( 0, 0 )
rect_clip_content = false
mouse_filter = 0
mouse_default_cursor_shape = 0
size_flags_horizontal = 1
size_flags_vertical = 1
custom_constants/margin_right = 20
custom_constants/margin_top = 30
custom_constants/margin_left = 20
custom_constants/margin_bottom = 30
_sections_unfolded = [ "custom_constants" ]

[node name="Label" type="Label" parent="MarginContainer" index="0"]

anchor_left = 0.0
anchor_top = 0.0
anchor_right = 0.0
anchor_bottom = 0.0
margin_left = 20.0
margin_top = 30.0
margin_right = 620.0
margin_bottom = 44.0
rect_pivot_offset = Vector2( 0, 0 )
rect_clip_content = false
mouse_filter = 2
mouse_default_cursor_shape = 0
size_flags_horizontal = 1
size_flags_vertical = 4
text = "Press ENTER key to start!"
align = 1
percent_visible = 1.0
lines_skipped = 0
max_lines_visible = -1


